[
  {
    "path": "./icons/A_Armor04.png",
    "name": "Armor",
    "description": "",
    "stats": {}
  },
  {
    "path": "./icons/A_Armor05.png",
    "name": "Armor",
    "description": "",
    "stats": {}
  },
  {
    "path": "./icons/A_Armour01.png",
    "name": "Armour",
    "description": "",
    "stats": {}
  },
  {
    "path": "./icons/A_Armour02.png",
    "name": "Armour",
    "description": "",
    "stats": {}
  },
  {
    "path": "./icons/A_Armour03.png",
    "name": "Armour",
    "description": "",
    "stats": {}
  },
  {
    "path": "./icons/A_Clothing01.png",
    "name": "Clothing",
    "description": "",
    "stats": {}
  },
  {
    "path": "./icons/A_Clothing02.png",
    "name": "Clothing",
    "description": "",
    "stats": {}
  },
  {
    "path": "./icons/A_Shoes01.png",
    "name": "Shoes",
    "description": "",
    "stats": {}
  },
  {
    "path": "./icons/A_Shoes02.png",
    "name": "Shoes",
    "description": "",
    "stats": {}
  },
  {
    "path": "./icons/A_Shoes03.png",
    "name": "Shoes",
    "description": "",
    "stats": {}
  },
  {
    "path": "./icons/A_Shoes04.png",
    "name": "Shoes",
    "description": "",
    "stats": {}
  },
  {
    "path": "./icons/A_Shoes05.png",
    "name": "Shoes",
    "description": "",
    "stats": {}
  },
  {
    "path": "./icons/A_Shoes06.png",
    "name": "Shoes",
    "description": "",
    "stats": {}
  },
  {
    "path": "./icons/A_Shoes07.png",
    "name": "Shoes",
    "description": "",
    "stats": {}
  },
  {
    "path": "./icons/Ac_Medal01.png",
    "name": "Medal",
    "description": "",
    "stats": {}
  },
  {
    "path": "./icons/Ac_Medal02.png",
    "name": "Medal",
    "description": "",
    "stats": {}
  },
  {
    "path": "./icons/Ac_Medal03.png",
    "name": "Medal",
    "description": "",
    "stats": {}
  },
  {
    "path": "./icons/Ac_Medal04.png",
    "name": "Medal",
    "description": "",
    "stats": {}
  },
  {
    "path": "./icons/Ac_Necklace01.png",
    "name": "Necklace",
    "description": "",
    "stats": {}
  },
  {
    "path": "./icons/Ac_Necklace02.png",
    "name": "Necklace",
    "description": "",
    "stats": {}
  },
  {
    "path": "./icons/Ac_Necklace03.png",
    "name": "Necklace",
    "description": "",
    "stats": {}
  },
  {
    "path": "./icons/Ac_Necklace04.png",
    "name": "Necklace",
    "description": "",
    "stats": {}
  },
  {
    "path": "./icons/Ac_Necklace05.png",
    "name": "Necklace",
    "description": "",
    "stats": {}
  },
  {
    "path": "./icons/Ac_Necklace06.png",
    "name": "Necklace",
    "description": "",
    "stats": {}
  },
  {
    "path": "./icons/Ac_Necklace07.png",
    "name": "Necklace",
    "description": "",
    "stats": {}
  },
  {
    "path": "./icons/Ac_Necklace08.png",
    "name": "Necklace",
    "description": "",
    "stats": {}
  },
  {
    "path": "./icons/Ac_Ring01.png",
    "name": "Ring",
    "description": "",
    "stats": {}
  },
  {
    "path": "./icons/Ac_Ring02.png",
    "name": "Ring",
    "description": "",
    "stats": {}
  },
  {
    "path": "./icons/C_Elm01.png",
    "name": "Helm",
    "description": "",
    "stats": {}
  },
  {
    "path": "./icons/C_Elm03.png",
    "name": "Helm",
    "description": "",
    "stats": {}
  },
  {
    "path": "./icons/C_Elm04.png",
    "name": "Helm",
    "description": "",
    "stats": {}
  },
  {
    "path": "./icons/C_Hat01.png",
    "name": "Hat",
    "description": "",
    "stats": {}
  },
  {
    "path": "./icons/C_Hat02.png",
    "name": "Hat",
    "description": "",
    "stats": {}
  },
  {
    "path": "./icons/E_Bones02.png",
    "name": "Bones",
    "description": "",
    "stats": {}
  },
  {
    "path": "./icons/E_Bones03.png",
    "name": "Bones",
    "description": "",
    "stats": {}
  },
  {
    "path": "./icons/E_Gold01.png",
    "name": "Gold",
    "description": "",
    "stats": {}
  },
  {
    "path": "./icons/E_Gold02.png",
    "name": "Gold",
    "description": "",
    "stats": {}
  },
  {
    "path": "./icons/E_Metal01.png",
    "name": "Metal",
    "description": "",
    "stats": {}
  },
  {
    "path": "./icons/E_Metal02.png",
    "name": "Metal",
    "description": "",
    "stats": {}
  },
  {
    "path": "./icons/E_Metal03.png",
    "name": "Metal",
    "description": "",
    "stats": {}
  },
  {
    "path": "./icons/E_Metal04.png",
    "name": "Metal",
    "description": "",
    "stats": {}
  },
  {
    "path": "./icons/E_Metal05.png",
    "name": "Metal",
    "description": "",
    "stats": {}
  },
  {
    "path": "./icons/E_Metal06.png",
    "name": "Metal",
    "description": "",
    "stats": {}
  },
  {
    "path": "./icons/E_Metal07.png",
    "name": "Metal",
    "description": "",
    "stats": {}
  },
  {
    "path": "./icons/E_Metal08.png",
    "name": "Metal",
    "description": "",
    "stats": {}
  },
  {
    "path": "./icons/E_Metal09.png",
    "name": "Metal",
    "description": "",
    "stats": {}
  },
  {
    "path": "./icons/E_Wood01.png",
    "name": "Wood",
    "description": "",
    "stats": {}
  },
  {
    "path": "./icons/E_Wood02.png",
    "name": "Wood",
    "description": "",
    "stats": {}
  },
  {
    "path": "./icons/E_Wood03.png",
    "name": "Wood",
    "description": "",
    "stats": {}
  },
  {
    "path": "./icons/E_Wood04.png",
    "name": "Wood",
    "description": "",
    "stats": {}
  },
  {
    "path": "./icons/I_Agate.png",
    "name": "Agate",
    "description": "",
    "stats": {}
  },
  {
    "path": "./icons/I_Amethist.png",
    "name": "Amethist",
    "description": "",
    "stats": {}
  },
  {
    "path": "./icons/I_Antidote.png",
    "name": "Antidote",
    "description": "",
    "stats": {}
  },
  {
    "path": "./icons/I_BatWing.png",
    "name": "BatWing",
    "description": "",
    "stats": {}
  },
  {
    "path": "./icons/I_BirdsBeak.png",
    "name": "BirdsBeak",
    "description": "",
    "stats": {}
  },
  {
    "path": "./icons/I_Bone.png",
    "name": "Bone",
    "description": "",
    "stats": {}
  },
  {
    "path": "./icons/I_Book.png",
    "name": "Book",
    "description": "",
    "stats": {}
  },
  {
    "path": "./icons/I_Bottle01.png",
    "name": "Bottle",
    "description": "",
    "stats": {}
  },
  {
    "path": "./icons/I_Bottle02.png",
    "name": "Bottle",
    "description": "",
    "stats": {}
  },
  {
    "path": "./icons/I_Bottle03.png",
    "name": "Bottle",
    "description": "",
    "stats": {}
  },
  {
    "path": "./icons/I_Bottle04.png",
    "name": "Bottle",
    "description": "",
    "stats": {}
  },
  {
    "path": "./icons/I_BronzeBar.png",
    "name": "BronzeBar",
    "description": "",
    "stats": {}
  },
  {
    "path": "./icons/I_BronzeCoin.png",
    "name": "BronzeCoin",
    "description": "",
    "stats": {}
  },
  {
    "path": "./icons/I_C_Banana.png",
    "name": "C",
    "description": "",
    "stats": {}
  },
  {
    "path": "./icons/I_C_Bread.png",
    "name": "C",
    "description": "",
    "stats": {}
  },
  {
    "path": "./icons/I_C_Carrot.png",
    "name": "C",
    "description": "",
    "stats": {}
  },
  {
    "path": "./icons/I_C_Cheese.png",
    "name": "C",
    "description": "",
    "stats": {}
  },
  {
    "path": "./icons/I_C_Cherry.png",
    "name": "C",
    "description": "",
    "stats": {}
  },
  {
    "path": "./icons/I_C_Fish.png",
    "name": "C",
    "description": "",
    "stats": {}
  },
  {
    "path": "./icons/I_C_Grapes.png",
    "name": "C",
    "description": "",
    "stats": {}
  },
  {
    "path": "./icons/I_C_GreenGrapes.png",
    "name": "C",
    "description": "",
    "stats": {}
  },
  {
    "path": "./icons/I_C_GreenPepper.png",
    "name": "C",
    "description": "",
    "stats": {}
  },
  {
    "path": "./icons/I_C_Lemon.png",
    "name": "C",
    "description": "",
    "stats": {}
  },
  {
    "path": "./icons/I_C_Meat.png",
    "name": "C",
    "description": "",
    "stats": {}
  },
  {
    "path": "./icons/I_C_Mulberry.png",
    "name": "C",
    "description": "",
    "stats": {}
  },
  {
    "path": "./icons/I_C_Mushroom.png",
    "name": "C",
    "description": "",
    "stats": {}
  },
  {
    "path": "./icons/I_C_Nut.png",
    "name": "C",
    "description": "",
    "stats": {}
  },
  {
    "path": "./icons/I_C_Orange.png",
    "name": "C",
    "description": "",
    "stats": {}
  },
  {
    "path": "./icons/I_C_Pear.png",
    "name": "C",
    "description": "",
    "stats": {}
  },
  {
    "path": "./icons/I_C_Pie.png",
    "name": "C",
    "description": "",
    "stats": {}
  },
  {
    "path": "./icons/I_C_Pineapple.png",
    "name": "C",
    "description": "",
    "stats": {}
  },
  {
    "path": "./icons/I_C_Radish.png",
    "name": "C",
    "description": "",
    "stats": {}
  },
  {
    "path": "./icons/I_C_RawFish.png",
    "name": "C",
    "description": "",
    "stats": {}
  },
  {
    "path": "./icons/I_C_RawMeat.png",
    "name": "C",
    "description": "",
    "stats": {}
  },
  {
    "path": "./icons/I_C_RedPepper.png",
    "name": "C",
    "description": "",
    "stats": {}
  },
  {
    "path": "./icons/I_C_Strawberry.png",
    "name": "C",
    "description": "",
    "stats": {}
  },
  {
    "path": "./icons/I_C_Watermellon.png",
    "name": "C",
    "description": "",
    "stats": {}
  },
  {
    "path": "./icons/I_C_YellowPepper.png",
    "name": "C",
    "description": "",
    "stats": {}
  },
  {
    "path": "./icons/I_Cannon01.png",
    "name": "Cannon",
    "description": "",
    "stats": {}
  },
  {
    "path": "./icons/I_Cannon02.png",
    "name": "Cannon",
    "description": "",
    "stats": {}
  },
  {
    "path": "./icons/I_Cannon03.png",
    "name": "Cannon",
    "description": "",
    "stats": {}
  },
  {
    "path": "./icons/I_Cannon04.png",
    "name": "Cannon",
    "description": "",
    "stats": {}
  },
  {
    "path": "./icons/I_Cannon05.png",
    "name": "Cannon",
    "description": "",
    "stats": {}
  },
  {
    "path": "./icons/I_Chest01.png",
    "name": "Chest",
    "description": "",
    "stats": {}
  },
  {
    "path": "./icons/I_Chest02.png",
    "name": "Chest",
    "description": "",
    "stats": {}
  },
  {
    "path": "./icons/I_Clock.png",
    "name": "Clock",
    "description": "",
    "stats": {}
  },
  {
    "path": "./icons/I_Clover.png",
    "name": "Clover",
    "description": "",
    "stats": {}
  },
  {
    "path": "./icons/I_Coal.png",
    "name": "Coal",
    "description": "",
    "stats": {}
  },
  {
    "path": "./icons/I_Crystal01.png",
    "name": "Crystal",
    "description": "",
    "stats": {}
  },
  {
    "path": "./icons/I_Crystal02.png",
    "name": "Crystal",
    "description": "",
    "stats": {}
  },
  {
    "path": "./icons/I_Crystal03.png",
    "name": "Crystal",
    "description": "",
    "stats": {}
  },
  {
    "path": "./icons/I_Diamond.png",
    "name": "Diamond",
    "description": "",
    "stats": {}
  },
  {
    "path": "./icons/I_Eye.png",
    "name": "Eye",
    "description": "",
    "stats": {}
  },
  {
    "path": "./icons/I_Fabric.png",
    "name": "Fabric",
    "description": "",
    "stats": {}
  },
  {
    "path": "./icons/I_Fang.png",
    "name": "Fang",
    "description": "",
    "stats": {}
  },
  {
    "path": "./icons/I_Feather01.png",
    "name": "Feather",
    "description": "",
    "stats": {}
  },
  {
    "path": "./icons/I_Feather02.png",
    "name": "Feather",
    "description": "",
    "stats": {}
  },
  {
    "path": "./icons/I_FishTail.png",
    "name": "FishTail",
    "description": "",
    "stats": {}
  },
  {
    "path": "./icons/I_FoxTail.png",
    "name": "FoxTail",
    "description": "",
    "stats": {}
  },
  {
    "path": "./icons/I_FrogLeg.png",
    "name": "FrogLeg",
    "description": "",
    "stats": {}
  },
  {
    "path": "./icons/I_GoldBar.png",
    "name": "GoldBar",
    "description": "",
    "stats": {}
  },
  {
    "path": "./icons/I_GoldCoin.png",
    "name": "GoldCoin",
    "description": "",
    "stats": {}
  },
  {
    "path": "./icons/I_Ink.png",
    "name": "Ink",
    "description": "",
    "stats": {}
  },
  {
    "path": "./icons/I_IronBall.png",
    "name": "IronBall",
    "description": "",
    "stats": {}
  },
  {
    "path": "./icons/I_Jade.png",
    "name": "Jade",
    "description": "",
    "stats": {}
  },
  {
    "path": "./icons/I_Key01.png",
    "name": "Key",
    "description": "",
    "stats": {}
  },
  {
    "path": "./icons/I_Key02.png",
    "name": "Key",
    "description": "",
    "stats": {}
  },
  {
    "path": "./icons/I_Key03.png",
    "name": "Key",
    "description": "",
    "stats": {}
  },
  {
    "path": "./icons/I_Key04.png",
    "name": "Key",
    "description": "",
    "stats": {}
  },
  {
    "path": "./icons/I_Key05.png",
    "name": "Key",
    "description": "",
    "stats": {}
  },
  {
    "path": "./icons/I_Key06.png",
    "name": "Key",
    "description": "",
    "stats": {}
  },
  {
    "path": "./icons/I_Key07.png",
    "name": "Key",
    "description": "",
    "stats": {}
  },
  {
    "path": "./icons/I_Leaf.png",
    "name": "Leaf",
    "description": "",
    "stats": {}
  },
  {
    "path": "./icons/I_Map.png",
    "name": "Map",
    "description": "",
    "stats": {}
  },
  {
    "path": "./icons/I_Mirror.png",
    "name": "Mirror",
    "description": "",
    "stats": {}
  },
  {
    "path": "./icons/I_Opal.png",
    "name": "Opal",
    "description": "",
    "stats": {}
  },
  {
    "path": "./icons/I_RabbitPaw.png",
    "name": "RabbitPaw",
    "description": "",
    "stats": {}
  },
  {
    "path": "./icons/I_Rock01.png",
    "name": "Rock",
    "description": "",
    "stats": {}
  },
  {
    "path": "./icons/I_Rock02.png",
    "name": "Rock",
    "description": "",
    "stats": {}
  },
  {
    "path": "./icons/I_Rock03.png",
    "name": "Rock",
    "description": "",
    "stats": {}
  },
  {
    "path": "./icons/I_Rock04.png",
    "name": "Rock",
    "description": "",
    "stats": {}
  },
  {
    "path": "./icons/I_Rock05.png",
    "name": "Rock",
    "description": "",
    "stats": {}
  },
  {
    "path": "./icons/I_Ruby.png",
    "name": "Ruby",
    "description": "",
    "stats": {}
  },
  {
    "path": "./icons/I_Sapphire.png",
    "name": "Sapphire",
    "description": "",
    "stats": {}
  },
  {
    "path": "./icons/I_ScorpionClaw.png",
    "name": "ScorpionClaw",
    "description": "",
    "stats": {}
  },
  {
    "path": "./icons/I_Scroll.png",
    "name": "Scroll",
    "description": "",
    "stats": {}
  },
  {
    "path": "./icons/I_Scroll02.png",
    "name": "Scroll",
    "description": "",
    "stats": {}
  },
  {
    "path": "./icons/I_SilverBar.png",
    "name": "SilverBar",
    "description": "",
    "stats": {}
  },
  {
    "path": "./icons/I_SilverCoin.png",
    "name": "SilverCoin",
    "description": "",
    "stats": {}
  },
  {
    "path": "./icons/I_SnailShell.png",
    "name": "SnailShell",
    "description": "",
    "stats": {}
  },
  {
    "path": "./icons/I_SolidShell.png",
    "name": "SolidShell",
    "description": "",
    "stats": {}
  },
  {
    "path": "./icons/I_Telescope.png",
    "name": "Telescope",
    "description": "",
    "stats": {}
  },
  {
    "path": "./icons/I_Tentacle.png",
    "name": "Tentacle",
    "description": "",
    "stats": {}
  },
  {
    "path": "./icons/I_Torch01.png",
    "name": "Torch",
    "description": "",
    "stats": {}
  },
  {
    "path": "./icons/I_Torch02.png",
    "name": "Torch",
    "description": "",
    "stats": {}
  },
  {
    "path": "./icons/I_Water.png",
    "name": "Water",
    "description": "",
    "stats": {}
  },
  {
    "path": "./icons/I_WolfFur.png",
    "name": "WolfFur",
    "description": "",
    "stats": {}
  },
  {
    "path": "./icons/P_Blue01.png",
    "name": "Blue",
    "description": "",
    "stats": {}
  },
  {
    "path": "./icons/P_Blue02.png",
    "name": "Blue",
    "description": "",
    "stats": {}
  },
  {
    "path": "./icons/P_Blue03.png",
    "name": "Blue",
    "description": "",
    "stats": {}
  },
  {
    "path": "./icons/P_Blue04.png",
    "name": "Blue",
    "description": "",
    "stats": {}
  },
  {
    "path": "./icons/P_Blue05.png",
    "name": "Blue",
    "description": "",
    "stats": {}
  },
  {
    "path": "./icons/P_Blue06.png",
    "name": "Blue",
    "description": "",
    "stats": {}
  },
  {
    "path": "./icons/P_Blue07.png",
    "name": "Blue",
    "description": "",
    "stats": {}
  },
  {
    "path": "./icons/P_Blue08.png",
    "name": "Blue",
    "description": "",
    "stats": {}
  },
  {
    "path": "./icons/P_Green01.png",
    "name": "Green",
    "description": "",
    "stats": {}
  },
  {
    "path": "./icons/P_Green02.png",
    "name": "Green",
    "description": "",
    "stats": {}
  },
  {
    "path": "./icons/P_Green03.png",
    "name": "Green",
    "description": "",
    "stats": {}
  },
  {
    "path": "./icons/P_Green04.png",
    "name": "Green",
    "description": "",
    "stats": {}
  },
  {
    "path": "./icons/P_Green05.png",
    "name": "Green",
    "description": "",
    "stats": {}
  },
  {
    "path": "./icons/P_Green06.png",
    "name": "Green",
    "description": "",
    "stats": {}
  },
  {
    "path": "./icons/P_Medicine01.png",
    "name": "Medicine",
    "description": "",
    "stats": {}
  },
  {
    "path": "./icons/P_Medicine02.png",
    "name": "Medicine",
    "description": "",
    "stats": {}
  },
  {
    "path": "./icons/P_Medicine03.png",
    "name": "Medicine",
    "description": "",
    "stats": {}
  },
  {
    "path": "./icons/P_Medicine04.png",
    "name": "Medicine",
    "description": "",
    "stats": {}
  },
  {
    "path": "./icons/P_Medicine05.png",
    "name": "Medicine",
    "description": "",
    "stats": {}
  },
  {
    "path": "./icons/P_Medicine06.png",
    "name": "Medicine",
    "description": "",
    "stats": {}
  },
  {
    "path": "./icons/P_Medicine07.png",
    "name": "Medicine",
    "description": "",
    "stats": {}
  },
  {
    "path": "./icons/P_Medicine08.png",
    "name": "Medicine",
    "description": "",
    "stats": {}
  },
  {
    "path": "./icons/P_Medicine09.png",
    "name": "Medicine",
    "description": "",
    "stats": {}
  },
  {
    "path": "./icons/P_Orange01.png",
    "name": "Orange",
    "description": "",
    "stats": {}
  },
  {
    "path": "./icons/P_Orange02.png",
    "name": "Orange",
    "description": "",
    "stats": {}
  },
  {
    "path": "./icons/P_Orange03.png",
    "name": "Orange",
    "description": "",
    "stats": {}
  },
  {
    "path": "./icons/P_Orange04.png",
    "name": "Orange",
    "description": "",
    "stats": {}
  },
  {
    "path": "./icons/P_Orange05.png",
    "name": "Orange",
    "description": "",
    "stats": {}
  },
  {
    "path": "./icons/P_Orange06.png",
    "name": "Orange",
    "description": "",
    "stats": {}
  },
  {
    "path": "./icons/P_Pink01.png",
    "name": "Pink",
    "description": "",
    "stats": {}
  },
  {
    "path": "./icons/P_Pink02.png",
    "name": "Pink",
    "description": "",
    "stats": {}
  },
  {
    "path": "./icons/P_Pink03.png",
    "name": "Pink",
    "description": "",
    "stats": {}
  },
  {
    "path": "./icons/P_Pink04.png",
    "name": "Pink",
    "description": "",
    "stats": {}
  },
  {
    "path": "./icons/P_Pink05.png",
    "name": "Pink",
    "description": "",
    "stats": {}
  },
  {
    "path": "./icons/P_Pink06.png",
    "name": "Pink",
    "description": "",
    "stats": {}
  },
  {
    "path": "./icons/P_Pink07.png",
    "name": "Pink",
    "description": "",
    "stats": {}
  },
  {
    "path": "./icons/P_Pink08.png",
    "name": "Pink",
    "description": "",
    "stats": {}
  },
  {
    "path": "./icons/P_Red01.png",
    "name": "Red",
    "description": "",
    "stats": {}
  },
  {
    "path": "./icons/P_Red02.png",
    "name": "Red",
    "description": "",
    "stats": {}
  },
  {
    "path": "./icons/P_Red03.png",
    "name": "Red",
    "description": "",
    "stats": {}
  },
  {
    "path": "./icons/P_Red04.png",
    "name": "Red",
    "description": "",
    "stats": {}
  },
  {
    "path": "./icons/P_Red05.png",
    "name": "Red",
    "description": "",
    "stats": {}
  },
  {
    "path": "./icons/P_Red06.png",
    "name": "Red",
    "description": "",
    "stats": {}
  },
  {
    "path": "./icons/P_Red07.png",
    "name": "Red",
    "description": "",
    "stats": {}
  },
  {
    "path": "./icons/P_White01.png",
    "name": "White",
    "description": "",
    "stats": {}
  },
  {
    "path": "./icons/P_White02.png",
    "name": "White",
    "description": "",
    "stats": {}
  },
  {
    "path": "./icons/P_White03.png",
    "name": "White",
    "description": "",
    "stats": {}
  },
  {
    "path": "./icons/P_White04.png",
    "name": "White",
    "description": "",
    "stats": {}
  },
  {
    "path": "./icons/P_White05.png",
    "name": "White",
    "description": "",
    "stats": {}
  },
  {
    "path": "./icons/P_Yellow01.png",
    "name": "Yellow",
    "description": "",
    "stats": {}
  },
  {
    "path": "./icons/P_Yellow02.png",
    "name": "Yellow",
    "description": "",
    "stats": {}
  },
  {
    "path": "./icons/P_Yellow03.png",
    "name": "Yellow",
    "description": "",
    "stats": {}
  },
  {
    "path": "./icons/P_Yellow04.png",
    "name": "Yellow",
    "description": "",
    "stats": {}
  },
  {
    "path": "./icons/P_Yellow05.png",
    "name": "Yellow",
    "description": "",
    "stats": {}
  },
  {
    "path": "./icons/P_Yellow06.png",
    "name": "Yellow",
    "description": "",
    "stats": {}
  },
  {
    "path": "./icons/P_Yellow07.png",
    "name": "Yellow",
    "description": "",
    "stats": {}
  },
  {
    "path": "./icons/P_Yellow08.png",
    "name": "Yellow",
    "description": "",
    "stats": {}
  },
  {
    "path": "./icons/S_Axe01.png",
    "name": "Axe",
    "description": "",
    "stats": {}
  },
  {
    "path": "./icons/S_Axe02.png",
    "name": "Axe",
    "description": "",
    "stats": {}
  },
  {
    "path": "./icons/S_Axe03.png",
    "name": "Axe",
    "description": "",
    "stats": {}
  },
  {
    "path": "./icons/S_Axe04.png",
    "name": "Axe",
    "description": "",
    "stats": {}
  },
  {
    "path": "./icons/S_Axe05.png",
    "name": "Axe",
    "description": "",
    "stats": {}
  },
  {
    "path": "./icons/S_Axe06.png",
    "name": "Axe",
    "description": "",
    "stats": {}
  },
  {
    "path": "./icons/S_Axe07.png",
    "name": "Axe",
    "description": "",
    "stats": {}
  },
  {
    "path": "./icons/S_Bow01.png",
    "name": "Bow",
    "description": "",
    "stats": {}
  },
  {
    "path": "./icons/S_Bow02.png",
    "name": "Bow",
    "description": "",
    "stats": {}
  },
  {
    "path": "./icons/S_Bow03.png",
    "name": "Bow",
    "description": "",
    "stats": {}
  },
  {
    "path": "./icons/S_Bow04.png",
    "name": "Bow",
    "description": "",
    "stats": {}
  },
  {
    "path": "./icons/S_Bow05.png",
    "name": "Bow",
    "description": "",
    "stats": {}
  },
  {
    "path": "./icons/S_Bow06.png",
    "name": "Bow",
    "description": "",
    "stats": {}
  },
  {
    "path": "./icons/S_Bow07.png",
    "name": "Bow",
    "description": "",
    "stats": {}
  },
  {
    "path": "./icons/S_Bow08.png",
    "name": "Bow",
    "description": "",
    "stats": {}
  },
  {
    "path": "./icons/S_Bow09.png",
    "name": "Bow",
    "description": "",
    "stats": {}
  },
  {
    "path": "./icons/S_Bow10.png",
    "name": "Bow",
    "description": "",
    "stats": {}
  },
  {
    "path": "./icons/S_Bow11.png",
    "name": "Bow",
    "description": "",
    "stats": {}
  },
  {
    "path": "./icons/S_Bow12.png",
    "name": "Bow",
    "description": "",
    "stats": {}
  },
  {
    "path": "./icons/S_Bow13.png",
    "name": "Bow",
    "description": "",
    "stats": {}
  },
  {
    "path": "./icons/S_Bow14.png",
    "name": "Bow",
    "description": "",
    "stats": {}
  },
  {
    "path": "./icons/S_Buff01.png",
    "name": "Buff",
    "description": "",
    "stats": {}
  },
  {
    "path": "./icons/S_Buff02.png",
    "name": "Buff",
    "description": "",
    "stats": {}
  },
  {
    "path": "./icons/S_Buff03.png",
    "name": "Buff",
    "description": "",
    "stats": {}
  },
  {
    "path": "./icons/S_Buff04.png",
    "name": "Buff",
    "description": "",
    "stats": {}
  },
  {
    "path": "./icons/S_Buff05.png",
    "name": "Buff",
    "description": "",
    "stats": {}
  },
  {
    "path": "./icons/S_Buff06.png",
    "name": "Buff",
    "description": "",
    "stats": {}
  },
  {
    "path": "./icons/S_Buff07.png",
    "name": "Buff",
    "description": "",
    "stats": {}
  },
  {
    "path": "./icons/S_Buff08.png",
    "name": "Buff",
    "description": "",
    "stats": {}
  },
  {
    "path": "./icons/S_Buff09.png",
    "name": "Buff",
    "description": "",
    "stats": {}
  },
  {
    "path": "./icons/S_Buff10.png",
    "name": "Buff",
    "description": "",
    "stats": {}
  },
  {
    "path": "./icons/S_Buff11.png",
    "name": "Buff",
    "description": "",
    "stats": {}
  },
  {
    "path": "./icons/S_Buff12.png",
    "name": "Buff",
    "description": "",
    "stats": {}
  },
  {
    "path": "./icons/S_Buff13.png",
    "name": "Buff",
    "description": "",
    "stats": {}
  },
  {
    "path": "./icons/S_Buff14.png",
    "name": "Buff",
    "description": "",
    "stats": {}
  },
  {
    "path": "./icons/S_Dagger02.png",
    "name": "Dagger",
    "description": "",
    "stats": {}
  },
  {
    "path": "./icons/S_Dagger03.png",
    "name": "Dagger",
    "description": "",
    "stats": {}
  },
  {
    "path": "./icons/S_Dagger04.png",
    "name": "Dagger",
    "description": "",
    "stats": {}
  },
  {
    "path": "./icons/S_Dagger05.png",
    "name": "Dagger",
    "description": "",
    "stats": {}
  },
  {
    "path": "./icons/S_Dagger06.png",
    "name": "Dagger",
    "description": "",
    "stats": {}
  },
  {
    "path": "./icons/S_Earth01.png",
    "name": "Earth",
    "description": "",
    "stats": {}
  },
  {
    "path": "./icons/S_Earth02.png",
    "name": "Earth",
    "description": "",
    "stats": {}
  },
  {
    "path": "./icons/S_Earth03.png",
    "name": "Earth",
    "description": "",
    "stats": {}
  },
  {
    "path": "./icons/S_Earth04.png",
    "name": "Earth",
    "description": "",
    "stats": {}
  },
  {
    "path": "./icons/S_Earth05.png",
    "name": "Earth",
    "description": "",
    "stats": {}
  },
  {
    "path": "./icons/S_Earth06.png",
    "name": "Earth",
    "description": "",
    "stats": {}
  },
  {
    "path": "./icons/S_Earth07.png",
    "name": "Earth",
    "description": "",
    "stats": {}
  },
  {
    "path": "./icons/S_Fire01.png",
    "name": "Fire",
    "description": "",
    "stats": {}
  },
  {
    "path": "./icons/S_Fire02.png",
    "name": "Fire",
    "description": "",
    "stats": {}
  },
  {
    "path": "./icons/S_Fire03.png",
    "name": "Fire",
    "description": "",
    "stats": {}
  },
  {
    "path": "./icons/S_Fire04.png",
    "name": "Fire",
    "description": "",
    "stats": {}
  },
  {
    "path": "./icons/S_Fire05.png",
    "name": "Fire",
    "description": "",
    "stats": {}
  },
  {
    "path": "./icons/S_Fire06.png",
    "name": "Fire",
    "description": "",
    "stats": {}
  },
  {
    "path": "./icons/S_Fire07.png",
    "name": "Fire",
    "description": "",
    "stats": {}
  },
  {
    "path": "./icons/S_Fire08.png",
    "name": "Fire",
    "description": "",
    "stats": {}
  },
  {
    "path": "./icons/S_Holy01.png",
    "name": "Holy",
    "description": "",
    "stats": {}
  },
  {
    "path": "./icons/S_Holy02.png",
    "name": "Holy",
    "description": "",
    "stats": {}
  },
  {
    "path": "./icons/S_Holy03.png",
    "name": "Holy",
    "description": "",
    "stats": {}
  },
  {
    "path": "./icons/S_Holy04.png",
    "name": "Holy",
    "description": "",
    "stats": {}
  },
  {
    "path": "./icons/S_Holy05.png",
    "name": "Holy",
    "description": "",
    "stats": {}
  },
  {
    "path": "./icons/S_Holy06.png",
    "name": "Holy",
    "description": "",
    "stats": {}
  },
  {
    "path": "./icons/S_Holy07.png",
    "name": "Holy",
    "description": "",
    "stats": {}
  },
  {
    "path": "./icons/S_Holy08.png",
    "name": "Holy",
    "description": "",
    "stats": {}
  },
  {
    "path": "./icons/S_Holy09.png",
    "name": "Holy",
    "description": "",
    "stats": {}
  },
  {
    "path": "./icons/S_Holy10.png",
    "name": "Holy",
    "description": "",
    "stats": {}
  },
  {
    "path": "./icons/S_Ice01.png",
    "name": "Ice",
    "description": "",
    "stats": {}
  },
  {
    "path": "./icons/S_Ice02.png",
    "name": "Ice",
    "description": "",
    "stats": {}
  },
  {
    "path": "./icons/S_Ice03.png",
    "name": "Ice",
    "description": "",
    "stats": {}
  },
  {
    "path": "./icons/S_Ice04.png",
    "name": "Ice",
    "description": "",
    "stats": {}
  },
  {
    "path": "./icons/S_Ice05.png",
    "name": "Ice",
    "description": "",
    "stats": {}
  },
  {
    "path": "./icons/S_Ice06.png",
    "name": "Ice",
    "description": "",
    "stats": {}
  },
  {
    "path": "./icons/S_Ice07.png",
    "name": "Ice",
    "description": "",
    "stats": {}
  },
  {
    "path": "./icons/S_Ice08.png",
    "name": "Ice",
    "description": "",
    "stats": {}
  },
  {
    "path": "./icons/S_Ice09.png",
    "name": "Ice",
    "description": "",
    "stats": {}
  },
  {
    "path": "./icons/S_Light01.png",
    "name": "Light",
    "description": "",
    "stats": {}
  },
  {
    "path": "./icons/S_Light02.png",
    "name": "Light",
    "description": "",
    "stats": {}
  },
  {
    "path": "./icons/S_Light03.png",
    "name": "Light",
    "description": "",
    "stats": {}
  },
  {
    "path": "./icons/S_Light04.png",
    "name": "Light",
    "description": "",
    "stats": {}
  },
  {
    "path": "./icons/S_Magic01.png",
    "name": "Magic",
    "description": "",
    "stats": {}
  },
  {
    "path": "./icons/S_Magic02.png",
    "name": "Magic",
    "description": "",
    "stats": {}
  },
  {
    "path": "./icons/S_Magic03.png",
    "name": "Magic",
    "description": "",
    "stats": {}
  },
  {
    "path": "./icons/S_Magic04.png",
    "name": "Magic",
    "description": "",
    "stats": {}
  },
  {
    "path": "./icons/S_Magic05.png",
    "name": "Magic",
    "description": "",
    "stats": {}
  },
  {
    "path": "./icons/S_Magic06.png",
    "name": "Magic",
    "description": "",
    "stats": {}
  },
  {
    "path": "./icons/S_Magic07.png",
    "name": "Magic",
    "description": "",
    "stats": {}
  },
  {
    "path": "./icons/S_Magic08.png",
    "name": "Magic",
    "description": "",
    "stats": {}
  },
  {
    "path": "./icons/S_Magic09.png",
    "name": "Magic",
    "description": "",
    "stats": {}
  },
  {
    "path": "./icons/S_Magic10.png",
    "name": "Magic",
    "description": "",
    "stats": {}
  },
  {
    "path": "./icons/S_Magic11.png",
    "name": "Magic",
    "description": "",
    "stats": {}
  },
  {
    "path": "./icons/S_Physic01.png",
    "name": "Physic",
    "description": "",
    "stats": {}
  },
  {
    "path": "./icons/S_Physic02.png",
    "name": "Physic",
    "description": "",
    "stats": {}
  },
  {
    "path": "./icons/S_Poison01.png",
    "name": "Poison",
    "description": "",
    "stats": {}
  },
  {
    "path": "./icons/S_Poison02.png",
    "name": "Poison",
    "description": "",
    "stats": {}
  },
  {
    "path": "./icons/S_Poison03.png",
    "name": "Poison",
    "description": "",
    "stats": {}
  },
  {
    "path": "./icons/S_Poison04.png",
    "name": "Poison",
    "description": "",
    "stats": {}
  },
  {
    "path": "./icons/S_Poison05.png",
    "name": "Poison",
    "description": "",
    "stats": {}
  },
  {
    "path": "./icons/S_Poison06.png",
    "name": "Poison",
    "description": "",
    "stats": {}
  },
  {
    "path": "./icons/S_Poison07.png",
    "name": "Poison",
    "description": "",
    "stats": {}
  },
  {
    "path": "./icons/S_Poison08.png",
    "name": "Poison",
    "description": "",
    "stats": {}
  },
  {
    "path": "./icons/S_Poison09.png",
    "name": "Poison",
    "description": "",
    "stats": {}
  },
  {
    "path": "./icons/S_Shadow01.png",
    "name": "Shadow",
    "description": "",
    "stats": {}
  },
  {
    "path": "./icons/S_Shadow02.png",
    "name": "Shadow",
    "description": "",
    "stats": {}
  },
  {
    "path": "./icons/S_Shadow03.png",
    "name": "Shadow",
    "description": "",
    "stats": {}
  },
  {
    "path": "./icons/S_Shadow04.png",
    "name": "Shadow",
    "description": "",
    "stats": {}
  },
  {
    "path": "./icons/S_Shadow05.png",
    "name": "Shadow",
    "description": "",
    "stats": {}
  },
  {
    "path": "./icons/S_Shadow06.png",
    "name": "Shadow",
    "description": "",
    "stats": {}
  },
  {
    "path": "./icons/S_Shadow07.png",
    "name": "Shadow",
    "description": "",
    "stats": {}
  },
  {
    "path": "./icons/S_Shadow08.png",
    "name": "Shadow",
    "description": "",
    "stats": {}
  },
  {
    "path": "./icons/S_Shadow09.png",
    "name": "Shadow",
    "description": "",
    "stats": {}
  },
  {
    "path": "./icons/S_Shadow10.png",
    "name": "Shadow",
    "description": "",
    "stats": {}
  },
  {
    "path": "./icons/S_Shadow11.png",
    "name": "Shadow",
    "description": "",
    "stats": {}
  },
  {
    "path": "./icons/S_Shadow12.png",
    "name": "Shadow",
    "description": "",
    "stats": {}
  },
  {
    "path": "./icons/S_Shadow13.png",
    "name": "Shadow",
    "description": "",
    "stats": {}
  },
  {
    "path": "./icons/S_Shadow14.png",
    "name": "Shadow",
    "description": "",
    "stats": {}
  },
  {
    "path": "./icons/S_Shadow15.png",
    "name": "Shadow",
    "description": "",
    "stats": {}
  },
  {
    "path": "./icons/S_Shadow16.png",
    "name": "Shadow",
    "description": "",
    "stats": {}
  },
  {
    "path": "./icons/S_Sword01.png",
    "name": "Sword",
    "description": "",
    "stats": {}
  },
  {
    "path": "./icons/S_Sword02.png",
    "name": "Sword",
    "description": "",
    "stats": {}
  },
  {
    "path": "./icons/S_Sword03.png",
    "name": "Sword",
    "description": "",
    "stats": {}
  },
  {
    "path": "./icons/S_Sword04.png",
    "name": "Sword",
    "description": "",
    "stats": {}
  },
  {
    "path": "./icons/S_Sword05.png",
    "name": "Sword",
    "description": "",
    "stats": {}
  },
  {
    "path": "./icons/S_Sword06.png",
    "name": "Sword",
    "description": "",
    "stats": {}
  },
  {
    "path": "./icons/S_Sword07.png",
    "name": "Sword",
    "description": "",
    "stats": {}
  },
  {
    "path": "./icons/S_Sword08.png",
    "name": "Sword",
    "description": "",
    "stats": {}
  },
  {
    "path": "./icons/S_Sword09.png",
    "name": "Sword",
    "description": "",
    "stats": {}
  },
  {
    "path": "./icons/S_Sword10.png",
    "name": "Sword",
    "description": "",
    "stats": {}
  },
  {
    "path": "./icons/S_Sword15.png",
    "name": "Sword",
    "description": "",
    "stats": {}
  },
  {
    "path": "./icons/S_Sword16.png",
    "name": "Sword",
    "description": "",
    "stats": {}
  },
  {
    "path": "./icons/S_Sword17.png",
    "name": "Sword",
    "description": "",
    "stats": {}
  },
  {
    "path": "./icons/S_Sword18.png",
    "name": "Sword",
    "description": "",
    "stats": {}
  },
  {
    "path": "./icons/S_Sword19.png",
    "name": "Sword",
    "description": "",
    "stats": {}
  },
  {
    "path": "./icons/S_Sword20.png",
    "name": "Sword",
    "description": "",
    "stats": {}
  },
  {
    "path": "./icons/S_Sword21.png",
    "name": "Sword",
    "description": "",
    "stats": {}
  },
  {
    "path": "./icons/S_Thunder01.png",
    "name": "Thunder",
    "description": "",
    "stats": {}
  },
  {
    "path": "./icons/S_Thunder02.png",
    "name": "Thunder",
    "description": "",
    "stats": {}
  },
  {
    "path": "./icons/S_Thunder03.png",
    "name": "Thunder",
    "description": "",
    "stats": {}
  },
  {
    "path": "./icons/S_Thunder04.png",
    "name": "Thunder",
    "description": "",
    "stats": {}
  },
  {
    "path": "./icons/S_Thunder05.png",
    "name": "Thunder",
    "description": "",
    "stats": {}
  },
  {
    "path": "./icons/S_Thunder06.png",
    "name": "Thunder",
    "description": "",
    "stats": {}
  },
  {
    "path": "./icons/S_Thunder07.png",
    "name": "Thunder",
    "description": "",
    "stats": {}
  },
  {
    "path": "./icons/S_Water01.png",
    "name": "Water",
    "description": "",
    "stats": {}
  },
  {
    "path": "./icons/S_Water02.png",
    "name": "Water",
    "description": "",
    "stats": {}
  },
  {
    "path": "./icons/S_Water03.png",
    "name": "Water",
    "description": "",
    "stats": {}
  },
  {
    "path": "./icons/S_Water04.png",
    "name": "Water",
    "description": "",
    "stats": {}
  },
  {
    "path": "./icons/S_Water05.png",
    "name": "Water",
    "description": "",
    "stats": {}
  },
  {
    "path": "./icons/S_Water06.png",
    "name": "Water",
    "description": "",
    "stats": {}
  },
  {
    "path": "./icons/S_Water07.png",
    "name": "Water",
    "description": "",
    "stats": {}
  },
  {
    "path": "./icons/S_Wind01.png",
    "name": "Wind",
    "description": "",
    "stats": {}
  },
  {
    "path": "./icons/S_Wind02.png",
    "name": "Wind",
    "description": "",
    "stats": {}
  },
  {
    "path": "./icons/S_Wind03.png",
    "name": "Wind",
    "description": "",
    "stats": {}
  },
  {
    "path": "./icons/S_Wind04.png",
    "name": "Wind",
    "description": "",
    "stats": {}
  },
  {
    "path": "./icons/S_Wind05.png",
    "name": "Wind",
    "description": "",
    "stats": {}
  },
  {
    "path": "./icons/S_Wind06.png",
    "name": "Wind",
    "description": "",
    "stats": {}
  },
  {
    "path": "./icons/S_Wind07.png",
    "name": "Wind",
    "description": "",
    "stats": {}
  },
  {
    "path": "./icons/W_Axe001.png",
    "name": "Axe",
    "description": "",
    "stats": {}
  },
  {
    "path": "./icons/W_Axe002.png",
    "name": "Axe",
    "description": "",
    "stats": {}
  },
  {
    "path": "./icons/W_Axe003.png",
    "name": "Axe",
    "description": "",
    "stats": {}
  },
  {
    "path": "./icons/W_Axe004.png",
    "name": "Axe",
    "description": "",
    "stats": {}
  },
  {
    "path": "./icons/W_Axe005.png",
    "name": "Axe",
    "description": "",
    "stats": {}
  },
  {
    "path": "./icons/W_Axe006.png",
    "name": "Axe",
    "description": "",
    "stats": {}
  },
  {
    "path": "./icons/W_Axe007.png",
    "name": "Axe",
    "description": "",
    "stats": {}
  },
  {
    "path": "./icons/W_Axe008.png",
    "name": "Axe",
    "description": "",
    "stats": {}
  },
  {
    "path": "./icons/W_Axe009.png",
    "name": "Axe",
    "description": "",
    "stats": {}
  },
  {
    "path": "./icons/W_Axe010.png",
    "name": "Axe",
    "description": "",
    "stats": {}
  },
  {
    "path": "./icons/W_Axe011.png",
    "name": "Axe",
    "description": "",
    "stats": {}
  },
  {
    "path": "./icons/W_Axe012.png",
    "name": "Axe",
    "description": "",
    "stats": {}
  },
  {
    "path": "./icons/W_Axe013.png",
    "name": "Axe",
    "description": "",
    "stats": {}
  },
  {
    "path": "./icons/W_Axe014.png",
    "name": "Axe",
    "description": "",
    "stats": {}
  },
  {
    "path": "./icons/W_Book01.png",
    "name": "Book",
    "description": "",
    "stats": {}
  },
  {
    "path": "./icons/W_Book02.png",
    "name": "Book",
    "description": "",
    "stats": {}
  },
  {
    "path": "./icons/W_Book03.png",
    "name": "Book",
    "description": "",
    "stats": {}
  },
  {
    "path": "./icons/W_Book04.png",
    "name": "Book",
    "description": "",
    "stats": {}
  },
  {
    "path": "./icons/W_Book05.png",
    "name": "Book",
    "description": "",
    "stats": {}
  },
  {
    "path": "./icons/W_Book06.png",
    "name": "Book",
    "description": "",
    "stats": {}
  },
  {
    "path": "./icons/W_Book07.png",
    "name": "Book",
    "description": "",
    "stats": {}
  },
  {
    "path": "./icons/W_Bow01.png",
    "name": "Bow",
    "description": "",
    "stats": {}
  },
  {
    "path": "./icons/W_Bow02.png",
    "name": "Bow",
    "description": "",
    "stats": {}
  },
  {
    "path": "./icons/W_Bow03.png",
    "name": "Bow",
    "description": "",
    "stats": {}
  },
  {
    "path": "./icons/W_Bow04.png",
    "name": "Bow",
    "description": "",
    "stats": {}
  },
  {
    "path": "./icons/W_Bow05.png",
    "name": "Bow",
    "description": "",
    "stats": {}
  },
  {
    "path": "./icons/W_Bow06.png",
    "name": "Bow",
    "description": "",
    "stats": {}
  },
  {
    "path": "./icons/W_Bow07.png",
    "name": "Bow",
    "description": "",
    "stats": {}
  },
  {
    "path": "./icons/W_Bow08.png",
    "name": "Bow",
    "description": "",
    "stats": {}
  },
  {
    "path": "./icons/W_Bow09.png",
    "name": "Bow",
    "description": "",
    "stats": {}
  },
  {
    "path": "./icons/W_Bow10.png",
    "name": "Bow",
    "description": "",
    "stats": {}
  },
  {
    "path": "./icons/W_Bow11.png",
    "name": "Bow",
    "description": "",
    "stats": {}
  },
  {
    "path": "./icons/W_Bow12.png",
    "name": "Bow",
    "description": "",
    "stats": {}
  },
  {
    "path": "./icons/W_Bow13.png",
    "name": "Bow",
    "description": "",
    "stats": {}
  },
  {
    "path": "./icons/W_Bow14.png",
    "name": "Bow",
    "description": "",
    "stats": {}
  },
  {
    "path": "./icons/W_Bow15.png",
    "name": "Bow",
    "description": "",
    "stats": {}
  },
  {
    "path": "./icons/W_Bow16.png",
    "name": "Bow",
    "description": "",
    "stats": {}
  },
  {
    "path": "./icons/W_Bow17.png",
    "name": "Bow",
    "description": "",
    "stats": {}
  },
  {
    "path": "./icons/W_Dagger001.png",
    "name": "Dagger",
    "description": "",
    "stats": {}
  },
  {
    "path": "./icons/W_Dagger002.png",
    "name": "Dagger",
    "description": "",
    "stats": {}
  },
  {
    "path": "./icons/W_Dagger003.png",
    "name": "Dagger",
    "description": "",
    "stats": {}
  },
  {
    "path": "./icons/W_Dagger004.png",
    "name": "Dagger",
    "description": "",
    "stats": {}
  },
  {
    "path": "./icons/W_Dagger005.png",
    "name": "Dagger",
    "description": "",
    "stats": {}
  },
  {
    "path": "./icons/W_Dagger006.png",
    "name": "Dagger",
    "description": "",
    "stats": {}
  },
  {
    "path": "./icons/W_Dagger007.png",
    "name": "Dagger",
    "description": "",
    "stats": {}
  },
  {
    "path": "./icons/W_Dagger008.png",
    "name": "Dagger",
    "description": "",
    "stats": {}
  },
  {
    "path": "./icons/W_Dagger009.png",
    "name": "Dagger",
    "description": "",
    "stats": {}
  },
  {
    "path": "./icons/W_Dagger010.png",
    "name": "Dagger",
    "description": "",
    "stats": {}
  },
  {
    "path": "./icons/W_Dagger011.png",
    "name": "Dagger",
    "description": "",
    "stats": {}
  },
  {
    "path": "./icons/W_Dagger012.png",
    "name": "Dagger",
    "description": "",
    "stats": {}
  },
  {
    "path": "./icons/W_Dagger013.png",
    "name": "Dagger",
    "description": "",
    "stats": {}
  },
  {
    "path": "./icons/W_Dagger014.png",
    "name": "Dagger",
    "description": "",
    "stats": {}
  },
  {
    "path": "./icons/W_Dagger015.png",
    "name": "Dagger",
    "description": "",
    "stats": {}
  },
  {
    "path": "./icons/W_Dagger016.png",
    "name": "Dagger",
    "description": "",
    "stats": {}
  },
  {
    "path": "./icons/W_Dagger017.png",
    "name": "Dagger",
    "description": "",
    "stats": {}
  },
  {
    "path": "./icons/W_Dagger018.png",
    "name": "Dagger",
    "description": "",
    "stats": {}
  },
  {
    "path": "./icons/W_Dagger019.png",
    "name": "Dagger",
    "description": "",
    "stats": {}
  },
  {
    "path": "./icons/W_Dagger020.png",
    "name": "Dagger",
    "description": "",
    "stats": {}
  },
  {
    "path": "./icons/W_Dagger021.png",
    "name": "Dagger",
    "description": "",
    "stats": {}
  },
  {
    "path": "./icons/W_Fist001.png",
    "name": "Fist",
    "description": "",
    "stats": {}
  },
  {
    "path": "./icons/W_Fist002.png",
    "name": "Fist",
    "description": "",
    "stats": {}
  },
  {
    "path": "./icons/W_Fist003.png",
    "name": "Fist",
    "description": "",
    "stats": {}
  },
  {
    "path": "./icons/W_Fist004.png",
    "name": "Fist",
    "description": "",
    "stats": {}
  },
  {
    "path": "./icons/W_Fist005.png",
    "name": "Fist",
    "description": "",
    "stats": {}
  },
  {
    "path": "./icons/W_Gold_Axe.png",
    "name": "Gold",
    "description": "",
    "stats": {}
  },
  {
    "path": "./icons/W_Gold_Bow.png",
    "name": "Gold",
    "description": "",
    "stats": {}
  },
  {
    "path": "./icons/W_Gold_Dagger.png",
    "name": "Gold",
    "description": "",
    "stats": {}
  },
  {
    "path": "./icons/W_Gold_Mace.png",
    "name": "Gold",
    "description": "",
    "stats": {}
  },
  {
    "path": "./icons/W_Gold_Spear.png",
    "name": "Gold",
    "description": "",
    "stats": {}
  },
  {
    "path": "./icons/W_Gold_Sword.png",
    "name": "Gold",
    "description": "",
    "stats": {}
  },
  {
    "path": "./icons/W_Gun001.png",
    "name": "Gun",
    "description": "",
    "stats": {}
  },
  {
    "path": "./icons/W_Gun002.png",
    "name": "Gun",
    "description": "",
    "stats": {}
  },
  {
    "path": "./icons/W_Gun003.png",
    "name": "Gun",
    "description": "",
    "stats": {}
  },
  {
    "path": "./icons/W_Mace001.png",
    "name": "Mace",
    "description": "",
    "stats": {}
  },
  {
    "path": "./icons/W_Mace002.png",
    "name": "Mace",
    "description": "",
    "stats": {}
  },
  {
    "path": "./icons/W_Mace003.png",
    "name": "Mace",
    "description": "",
    "stats": {}
  },
  {
    "path": "./icons/W_Mace004.png",
    "name": "Mace",
    "description": "",
    "stats": {}
  },
  {
    "path": "./icons/W_Mace005.png",
    "name": "Mace",
    "description": "",
    "stats": {}
  },
  {
    "path": "./icons/W_Mace006.png",
    "name": "Mace",
    "description": "",
    "stats": {}
  },
  {
    "path": "./icons/W_Mace007.png",
    "name": "Mace",
    "description": "",
    "stats": {}
  },
  {
    "path": "./icons/W_Mace008.png",
    "name": "Mace",
    "description": "",
    "stats": {}
  },
  {
    "path": "./icons/W_Mace009.png",
    "name": "Mace",
    "description": "",
    "stats": {}
  },
  {
    "path": "./icons/W_Mace010.png",
    "name": "Mace",
    "description": "",
    "stats": {}
  },
  {
    "path": "./icons/W_Mace011.png",
    "name": "Mace",
    "description": "",
    "stats": {}
  },
  {
    "path": "./icons/W_Mace012.png",
    "name": "Mace",
    "description": "",
    "stats": {}
  },
  {
    "path": "./icons/W_Mace013.png",
    "name": "Mace",
    "description": "",
    "stats": {}
  },
  {
    "path": "./icons/W_Mace014.png",
    "name": "Mace",
    "description": "",
    "stats": {}
  },
  {
    "path": "./icons/W_Mace15.png",
    "name": "Mace",
    "description": "",
    "stats": {}
  },
  {
    "path": "./icons/W_Mace16.png",
    "name": "Mace",
    "description": "",
    "stats": {}
  },
  {
    "path": "./icons/W_Spear001.png",
    "name": "Spear",
    "description": "",
    "stats": {}
  },
  {
    "path": "./icons/W_Spear002.png",
    "name": "Spear",
    "description": "",
    "stats": {}
  },
  {
    "path": "./icons/W_Spear003.png",
    "name": "Spear",
    "description": "",
    "stats": {}
  },
  {
    "path": "./icons/W_Spear004.png",
    "name": "Spear",
    "description": "",
    "stats": {}
  },
  {
    "path": "./icons/W_Spear005.png",
    "name": "Spear",
    "description": "",
    "stats": {}
  },
  {
    "path": "./icons/W_Spear006.png",
    "name": "Spear",
    "description": "",
    "stats": {}
  },
  {
    "path": "./icons/W_Spear007.png",
    "name": "Spear",
    "description": "",
    "stats": {}
  },
  {
    "path": "./icons/W_Spear008.png",
    "name": "Spear",
    "description": "",
    "stats": {}
  },
  {
    "path": "./icons/W_Spear009.png",
    "name": "Spear",
    "description": "",
    "stats": {}
  },
  {
    "path": "./icons/W_Spear010.png",
    "name": "Spear",
    "description": "",
    "stats": {}
  },
  {
    "path": "./icons/W_Spear011.png",
    "name": "Spear",
    "description": "",
    "stats": {}
  },
  {
    "path": "./icons/W_Spear012.png",
    "name": "Spear",
    "description": "",
    "stats": {}
  },
  {
    "path": "./icons/W_Spear013.png",
    "name": "Spear",
    "description": "",
    "stats": {}
  },
  {
    "path": "./icons/W_Spear014.png",
    "name": "Spear",
    "description": "",
    "stats": {}
  },
  {
    "path": "./icons/W_Staff01.png",
    "name": "Staff",
    "description": "",
    "stats": {}
  },
  {
    "path": "./icons/W_Staff02.png",
    "name": "Staff",
    "description": "",
    "stats": {}
  },
  {
    "path": "./icons/W_Staff03.png",
    "name": "Staff",
    "description": "",
    "stats": {}
  },
  {
    "path": "./icons/W_Staff04.png",
    "name": "Staff",
    "description": "",
    "stats": {}
  },
  {
    "path": "./icons/W_Staff05.png",
    "name": "Staff",
    "description": "",
    "stats": {}
  },
  {
    "path": "./icons/W_Staff06.png",
    "name": "Staff",
    "description": "",
    "stats": {}
  },
  {
    "path": "./icons/W_Staff07.png",
    "name": "Staff",
    "description": "",
    "stats": {}
  },
  {
    "path": "./icons/W_Staff08.png",
    "name": "Staff",
    "description": "",
    "stats": {}
  },
  {
    "path": "./icons/W_Sword001.png",
    "name": "Sword",
    "description": "",
    "stats": {}
  },
  {
    "path": "./icons/W_Sword002.png",
    "name": "Sword",
    "description": "",
    "stats": {}
  },
  {
    "path": "./icons/W_Sword003.png",
    "name": "Sword",
    "description": "",
    "stats": {}
  },
  {
    "path": "./icons/W_Sword004.png",
    "name": "Sword",
    "description": "",
    "stats": {}
  },
  {
    "path": "./icons/W_Sword005.png",
    "name": "Sword",
    "description": "",
    "stats": {}
  },
  {
    "path": "./icons/W_Sword006.png",
    "name": "Sword",
    "description": "",
    "stats": {}
  },
  {
    "path": "./icons/W_Sword007.png",
    "name": "Sword",
    "description": "",
    "stats": {}
  },
  {
    "path": "./icons/W_Sword008.png",
    "name": "Sword",
    "description": "",
    "stats": {}
  },
  {
    "path": "./icons/W_Sword009.png",
    "name": "Sword",
    "description": "",
    "stats": {}
  },
  {
    "path": "./icons/W_Sword010.png",
    "name": "Sword",
    "description": "",
    "stats": {}
  },
  {
    "path": "./icons/W_Sword011.png",
    "name": "Sword",
    "description": "",
    "stats": {}
  },
  {
    "path": "./icons/W_Sword012.png",
    "name": "Sword",
    "description": "",
    "stats": {}
  },
  {
    "path": "./icons/W_Sword013.png",
    "name": "Sword",
    "description": "",
    "stats": {}
  },
  {
    "path": "./icons/W_Sword014.png",
    "name": "Sword",
    "description": "",
    "stats": {}
  },
  {
    "path": "./icons/W_Sword015.png",
    "name": "Sword",
    "description": "",
    "stats": {}
  },
  {
    "path": "./icons/W_Sword016.png",
    "name": "Sword",
    "description": "",
    "stats": {}
  },
  {
    "path": "./icons/W_Sword017.png",
    "name": "Sword",
    "description": "",
    "stats": {}
  },
  {
    "path": "./icons/W_Sword018.png",
    "name": "Sword",
    "description": "",
    "stats": {}
  },
  {
    "path": "./icons/W_Sword019.png",
    "name": "Sword",
    "description": "",
    "stats": {}
  },
  {
    "path": "./icons/W_Sword020.png",
    "name": "Sword",
    "description": "",
    "stats": {}
  },
  {
    "path": "./icons/W_Sword021.png",
    "name": "Sword",
    "description": "",
    "stats": {}
  },
  {
    "path": "./icons/W_Sword022.png",
    "name": "Sword",
    "description": "",
    "stats": {}
  },
  {
    "path": "./icons/W_Throw001.png",
    "name": "Throw",
    "description": "",
    "stats": {}
  },
  {
    "path": "./icons/W_Throw002.png",
    "name": "Throw",
    "description": "",
    "stats": {}
  },
  {
    "path": "./icons/W_Throw003.png",
    "name": "Throw",
    "description": "",
    "stats": {}
  },
  {
    "path": "./icons/W_Throw004.png",
    "name": "Throw",
    "description": "",
    "stats": {}
  },
  {
    "path": "./icons/W_Throw05.png",
    "name": "Throw",
    "description": "",
    "stats": {}
  }
]